Full Name (optional)	State Name	State Abbrv.	ADP State Code	Other Searchable Data from KelCar	Address Summary	Phone Number	Address Line 1	Data__AddressLine2	Country	Customer ID from KelCar	Dealership ID from KelCar	First Name	Middle Initial	Last Name	ADP Address	City	State/ Province ID	Zipcode	Country	SalesPerson ID from KelCar	Birthdate	Customer Birthday from KelCar	Deal Id from KelCar	Timestamp	Active?	Drivers License #	Email Address	Data__PhoneNumber	ADP Customer Id from KelCar	Total	Gross
addam edward french	virginia	va	va	 addam edward french|	20282 river ridge terr #203  ashburn virginia 20147	null	20282 river ridge terr #203	null	US	9041	1	 addam edward		french	20282 river ridge terr #203	ashburn	55	20147	null	null	########	########	9357	########	TRUE	null	null	null	null		
alexis	west virginia	wv	wv	 alexis|	721 w martin st  martinsburg west virginia 25401	null	721 w martin st	null	US	81	1			alexis	721 w martin st	martinsburg	57	25401	null	null	########	########	108	########	TRUE	null	null	null	null		
barnhart	west virginia	wv	wv	 barnhart|	7647 hedgesville rd  hedgesville west virginia 25427	null	7647 hedgesville rd	null	US	12029	1			barnhart	7647 hedgesville rd	hedgesville	57	25427	null	null	########	########	12535	########	TRUE	null	null	null	null		
bridges	west virginia	wv	wv	 bridges|	123 midnoon drive  martinsburg west virginia 25404	null	123 midnoon dr	null	US	3240	1			bridges	123 midnoon drive	martinsburg	57	25404	null	null	########	########	3356	########	TRUE	null	null	null	null		
brown	west virginia	wv	wv	 brown|5712164937	100 tarkay place  martinsburg west virginia 25403	5.71E+09	100 tarkay pl	null	US	10808	1			brown	100 tarkay place	martinsburg	57	25403	null	null	########	########	11185	########	TRUE	null	tarkayplace@yahoo.com	5.71E+09	null		
butch	virginia	va	va	 butch|7244482694	2523 heath pl                        reston               virginia 20191	7.24E+09	2523 heath pl	null	US	11638	1			butch	2523 heath pl                      	reston              	55	20191	null	null	########	########	12100	########	TRUE	a65392003                	null	7.24E+09	null		
campeau	west virginia	wv	wv	 campeau|	860 showers lane  martinsburg west virginia 25403	null	860 showers ln	null	US	51	1			campeau	860 showers lane	martinsburg	57	25403	null	null	########	########	76	########	TRUE	null	null	null	null		
carmona	texas	tx	tx	 carmona|	11703 capotillo  san antonio texas 78233	null	11703 capotillo	null	US	1200	1			carmona	11703 capotillo	san antonio	51	78233	null	null	########	########	1240	########	TRUE	25517789	null	null	null		
carmona	texas	tx	tx	 carmona|	6613 amposta  el paso texas 79912	null	6613 amposta	null	US	1227	1		andrew	carmona	6613 amposta	el paso	51	79912	null	null	########	########	3118	########	TRUE	25517789	null	null	null		
carmona	texas	tx	tx	 carmona|	6613 amposta  el paso texas 79912	null	6613 amposta	null	US	3016	1		andrew	carmona	6613 amposta	el paso	51	79912	null	null	########	########	3116	########	TRUE	25517789	null	null	null		
cartee	west virginia	wv	wv	 cartee|	96 firefly ln  martinsburg west virginia 25403	null	96 firefly ln	null	US	85	1			cartee	96 firefly ln	martinsburg	57	25403	null	null	########	########	112	########	TRUE	null	null	null	null		
coots	virginia	va	va	 coots|	14838 hoxton sq                      centreville          virginia 20120	null	14838 hoxton sq	null	US	10110	1			coots	14838 hoxton sq                    	centreville         	55	20120	null	null	########	########	10434	########	TRUE	a60807946                	null	null	null		
david  zendek	virginia	va	va	 david  zendek|7039303963	43795 lost corner rd  leesburg virginia 20176	7.04E+09	43795 lost corner rd	null	US	2871	1	 david 	michael	zendek	43795 lost corner rd	leesburg	55	20176	null	null	########	########	2960	########	TRUE	t65956865	null	7.04E+09	110839		
delsignore jr	virginia	va	va	 delsignore jr|	27 lyndhurst ct                      sterling             virginia 20165	null	27 lyndhurst ct	null	US	8849	1			delsignore jr	27 lyndhurst ct                    	sterling            	55	20165	null	null	########	########	9149	########	TRUE	t28421413                	null	null	null		
dufour	west virginia	wv	wv	 dufour|2405558888	213 sumter dr  martinsburg west virginia 25403	2.41E+09	213 sumter dr	null	US	12249	1			dufour	213 sumter dr	martinsburg	57	25403	null	null	########	########	12782	########	TRUE	null	null	2.41E+09	null		
e.	null	null	null	 e.|	    	null		null	US	4954	1			e.			null	null	null	null	null	null	5107	########	TRUE	null	null	null	null		
fedorchak	virginia	va	va	 fedorchak|	386 wealthy rd                       linden               virginia 22642	null	386 wealthy rd	null	US	11888	1			fedorchak	386 wealthy rd                     	linden              	55	22642	null	null	########	########	12372	########	TRUE	t66724386                	null	null	null		
fisher	west virginia	wv	wv	 fisher|	79 jolly rancher dr  martinsburg west virginia 25405	null	79 jolly rancher dr	null	US	7997	1			fisher	79 jolly rancher dr	martinsburg	57	25405	null	null	########	########	8260	########	TRUE	null	null	null	null		
fleece	west virginia	wv	wv	 fleece|	3180 valley road  berkeley spgs west virginia 25411	null	3180 valy rd	null	US	10513	1			fleece	3180 valley road	berkeley spgs	57	25411	null	null	########	########	10871	########	TRUE	null	null	null	null		
